Diffusion is 1e-12 cm^2/s
k_D is 0.01 nM

Completed in 0.016289 seconds
Number of dead cells is 0 
Diffusion is 1e-12 cm^2/s
k_D is 0.01 nM

Completed in 0.0465989 seconds
Number of dead cells is 0 
Diffusion is 1e-12 cm^2/s
k_D is 0.01 nM

Completed in 0.0665982 seconds
Number of dead cells is 0 
Diffusion is 1e-12 cm^2/s
k_D is 100 nM

Completed in 0.015758 seconds
Number of dead cells is 0 
Diffusion is 1e-12 cm^2/s
k_D is 100 nM

Completed in 0.0170131 seconds
Number of dead cells is 0 
Diffusion is 1e-12 cm^2/s
k_D is 100 nM

Completed in 0.0334158 seconds
Number of dead cells is 0 
Diffusion is 1e-12 cm^2/s
k_D is 100 nM

Completed in 0.0796788 seconds
Number of dead cells is 0 
Diffusion is 1e-12 cm^2/s
k_D is 100 nM

Completed in 0.591083 seconds
Number of dead cells is 0 
Diffusion is 1e-12 cm^2/s
k_D is 1 nM

Completed in 0.0146201 seconds
Number of dead cells is 0 
Diffusion is 1e-12 cm^2/s
k_D is 1 nM

Completed in 0.0174358 seconds
Number of dead cells is 0 
Diffusion is 1e-12 cm^2/s
k_D is 1 nM

Completed in 0.0448132 seconds
Number of dead cells is 0 
Diffusion is 1e-12 cm^2/s
k_D is 1 nM

Completed in 0.0708129 seconds
Number of dead cells is 0 
Diffusion is 1e-12 cm^2/s
k_D is 1 nM

Completed in 0.493327 seconds
Number of dead cells is 0 
Diffusion is 1e-12 cm^2/s
k_D is 0.01 nM

Completed in 0.012738 seconds
Number of dead cells is 0 
Diffusion is 1e-12 cm^2/s
k_D is 0.01 nM

Completed in 0.020298 seconds
Number of dead cells is 0 
Diffusion is 1e-12 cm^2/s
k_D is 0.01 nM

Completed in 0.0397019 seconds
Number of dead cells is 0 
Diffusion is 1e-12 cm^2/s
k_D is 0.01 nM

Completed in 0.0762618 seconds
Number of dead cells is 0 
Diffusion is 1e-12 cm^2/s
k_D is 0.01 nM

Completed in 0.550717 seconds
Number of dead cells is 0 
Diffusion is 1e-12 cm^2/s
k_D is 0.0001 nM

Completed in 0.0186591 seconds
Number of dead cells is 0 
Diffusion is 1e-12 cm^2/s
k_D is 0.0001 nM

Completed in 0.0189991 seconds
Number of dead cells is 0 
Diffusion is 1e-12 cm^2/s
k_D is 100 nM
Number of cells is 1

Completed in 0.011605 seconds
Number of dead cells is 0 
Diffusion is 1e-12 cm^2/s
k_D is 100 nM
Number of cells is 2

Completed in 0.0226402 seconds
Number of dead cells is 0 
Diffusion is 1e-12 cm^2/s
k_D is 100 nM
Number of cells is 5

Completed in 0.0378821 seconds
Number of dead cells is 0 
Diffusion is 1e-12 cm^2/s
k_D is 100 nM
Number of cells is 10

Completed in 0.0625479 seconds
Number of dead cells is 0 
Diffusion is 1e-12 cm^2/s
k_D is 100 nM
Number of cells is 50

Completed in 0.492917 seconds
Number of dead cells is 0 
Diffusion is 1e-12 cm^2/s
k_D is 1 nM
Number of cells is 1

Completed in 0.013761 seconds
Number of dead cells is 0 
Diffusion is 1e-12 cm^2/s
k_D is 1 nM
Number of cells is 2

Completed in 0.0210419 seconds
Number of dead cells is 0 
Diffusion is 1e-12 cm^2/s
k_D is 1 nM
Number of cells is 5

Completed in 0.044199 seconds
Number of dead cells is 0 
Diffusion is 1e-12 cm^2/s
k_D is 1 nM
Number of cells is 10

Completed in 0.0750141 seconds
Number of dead cells is 0 
Diffusion is 1e-12 cm^2/s
k_D is 1 nM
Number of cells is 50

Completed in 0.491882 seconds
Number of dead cells is 0 
Diffusion is 1e-12 cm^2/s
k_D is 0.01 nM
Number of cells is 1

Completed in 0.0150793 seconds
Number of dead cells is 0 
Diffusion is 1e-12 cm^2/s
k_D is 0.01 nM
Number of cells is 2

Completed in 0.021235 seconds
Number of dead cells is 0 
Diffusion is 1e-12 cm^2/s
k_D is 0.01 nM
Number of cells is 5

Completed in 0.043375 seconds
Number of dead cells is 0 
Diffusion is 1e-12 cm^2/s
k_D is 0.01 nM
Number of cells is 10

Completed in 0.0841968 seconds
Number of dead cells is 0 
Diffusion is 1e-12 cm^2/s
k_D is 0.01 nM
Number of cells is 50

Completed in 0.545269 seconds
Number of dead cells is 0 
Diffusion is 1e-12 cm^2/s
k_D is 0.0001 nM
Number of cells is 1

Completed in 0.0132558 seconds
Number of dead cells is 0 
Diffusion is 1e-12 cm^2/s
k_D is 0.0001 nM
Number of cells is 2

Completed in 0.0283189 seconds
Number of dead cells is 0 
Diffusion is 1e-12 cm^2/s
k_D is 0.0001 nM
Number of cells is 5

Completed in 0.0514171 seconds
Number of dead cells is 0 

Diffusion is 1e-12 cm^2/s
k_D is 100 nM
Number of cells is 1

Completed in 0.0173678 seconds
Number of dead cells is 0 

Diffusion is 1e-12 cm^2/s
k_D is 100 nM
Number of cells is 2

Completed in 0.0201721 seconds
Number of dead cells is 0 

Diffusion is 1e-12 cm^2/s
k_D is 100 nM
Number of cells is 5

Completed in 0.0307698 seconds
Number of dead cells is 0 

Diffusion is 1e-12 cm^2/s
k_D is 100 nM
Number of cells is 10

Completed in 0.0679362 seconds
Number of dead cells is 0 

Diffusion is 1e-12 cm^2/s
k_D is 100 nM
Number of cells is 50

Completed in 0.490115 seconds
Number of dead cells is 0 

Diffusion is 1e-12 cm^2/s
k_D is 1 nM
Number of cells is 1

Completed in 0.0112109 seconds
Number of dead cells is 0 

Diffusion is 1e-12 cm^2/s
k_D is 1 nM
Number of cells is 2

Completed in 0.0218019 seconds
Number of dead cells is 0 

Diffusion is 1e-12 cm^2/s
k_D is 1 nM
Number of cells is 5

Completed in 0.047524 seconds
Number of dead cells is 0 

Diffusion is 1e-12 cm^2/s
k_D is 1 nM
Number of cells is 10

Completed in 0.0703158 seconds
Number of dead cells is 0 

Diffusion is 1e-12 cm^2/s
k_D is 1 nM
Number of cells is 50

Completed in 0.49583 seconds
Number of dead cells is 0 

Diffusion is 1e-12 cm^2/s
k_D is 0.01 nM
Number of cells is 1

Completed in 0.0145371 seconds
Number of dead cells is 0 

Diffusion is 1e-12 cm^2/s
k_D is 0.01 nM
Number of cells is 2

Completed in 0.0256178 seconds
Number of dead cells is 0 

Diffusion is 1e-12 cm^2/s
k_D is 0.01 nM
Number of cells is 5

Completed in 0.0391669 seconds
Number of dead cells is 0 

Diffusion is 1e-12 cm^2/s
k_D is 0.01 nM
Number of cells is 10

Completed in 0.0776949 seconds
Number of dead cells is 0 

Diffusion is 1e-12 cm^2/s
k_D is 0.01 nM
Number of cells is 50

Completed in 0.633816 seconds
Number of dead cells is 0 

Diffusion is 1e-12 cm^2/s
k_D is 0.0001 nM
Number of cells is 1

Completed in 0.0153389 seconds
Number of dead cells is 0 

Diffusion is 1e-12 cm^2/s
k_D is 0.0001 nM
Number of cells is 2

Completed in 0.017854 seconds
Number of dead cells is 0 

Diffusion is 1e-12 cm^2/s
k_D is 0.0001 nM
Number of cells is 5

Completed in 0.0420623 seconds
Number of dead cells is 0 

Diffusion is 1e-12 cm^2/s
k_D is 0.0001 nM
Number of cells is 10

Completed in 0.0839119 seconds
Number of dead cells is 0 

Diffusion is 1e-12 cm^2/s
k_D is 0.0001 nM
Number of cells is 50

Completed in 0.498241 seconds
Number of dead cells is 0 

Diffusion is 1e-11 cm^2/s
k_D is 100 nM
Number of cells is 1

Completed in 0.0179701 seconds
Number of dead cells is 0 

Diffusion is 1e-11 cm^2/s
k_D is 100 nM
Number of cells is 2

Completed in 0.0166812 seconds
Number of dead cells is 0 

Diffusion is 1e-11 cm^2/s
k_D is 100 nM
Number of cells is 5

Completed in 0.0526617 seconds
Number of dead cells is 0 

Diffusion is 1e-11 cm^2/s
k_D is 100 nM
Number of cells is 10

Completed in 0.078223 seconds
Number of dead cells is 0 

Diffusion is 1e-11 cm^2/s
k_D is 100 nM
Number of cells is 50

Completed in 0.484241 seconds
Number of dead cells is 0 

Diffusion is 1e-11 cm^2/s
k_D is 1 nM
Number of cells is 1

Completed in 0.0130062 seconds
Number of dead cells is 0 

Diffusion is 1e-11 cm^2/s
k_D is 1 nM
Number of cells is 2

Completed in 0.0166061 seconds
Number of dead cells is 0 

Diffusion is 1e-11 cm^2/s
k_D is 1 nM
Number of cells is 5

Completed in 0.0367441 seconds
Number of dead cells is 0 

Diffusion is 1e-11 cm^2/s
k_D is 1 nM
Number of cells is 10

Completed in 0.069762 seconds
Number of dead cells is 0 

Diffusion is 1e-11 cm^2/s
k_D is 1 nM
Number of cells is 50

Completed in 0.49013 seconds
Number of dead cells is 0 

Diffusion is 1e-11 cm^2/s
k_D is 0.01 nM
Number of cells is 1

Completed in 0.0110211 seconds
Number of dead cells is 0 

Diffusion is 1e-11 cm^2/s
k_D is 0.01 nM
Number of cells is 2

Completed in 0.0199099 seconds
Number of dead cells is 0 

Diffusion is 1e-11 cm^2/s
k_D is 0.01 nM
Number of cells is 5

Completed in 0.0331128 seconds
Number of dead cells is 0 

Diffusion is 1e-11 cm^2/s
k_D is 0.01 nM
Number of cells is 10

Completed in 0.0688062 seconds
Number of dead cells is 0 

Diffusion is 1e-11 cm^2/s
k_D is 0.01 nM
Number of cells is 50

Completed in 0.491329 seconds
Number of dead cells is 0 

Diffusion is 1e-11 cm^2/s
k_D is 0.0001 nM
Number of cells is 1

Completed in 0.0117791 seconds
Number of dead cells is 0 

Diffusion is 1e-11 cm^2/s
k_D is 0.0001 nM
Number of cells is 2

Completed in 0.0209131 seconds
Number of dead cells is 0 

Diffusion is 1e-11 cm^2/s
k_D is 0.0001 nM
Number of cells is 5

Completed in 0.0432541 seconds
Number of dead cells is 0 

Diffusion is 1e-11 cm^2/s
k_D is 0.0001 nM
Number of cells is 10

Completed in 0.0668232 seconds
Number of dead cells is 0 

Diffusion is 1e-11 cm^2/s
k_D is 0.0001 nM
Number of cells is 50

Completed in 0.484999 seconds
Number of dead cells is 0 

Diffusion is 1e-10 cm^2/s
k_D is 100 nM
Number of cells is 1

Completed in 0.014729 seconds
Number of dead cells is 0 

Diffusion is 1e-10 cm^2/s
k_D is 100 nM
Number of cells is 2

Completed in 0.0157652 seconds
Number of dead cells is 0 

Diffusion is 1e-10 cm^2/s
k_D is 100 nM
Number of cells is 5

Completed in 0.0311821 seconds
Number of dead cells is 0 

Diffusion is 1e-10 cm^2/s
k_D is 100 nM
Number of cells is 10

Completed in 0.0721159 seconds
Number of dead cells is 0 

Diffusion is 1e-10 cm^2/s
k_D is 100 nM
Number of cells is 50

Completed in 0.514932 seconds
Number of dead cells is 0 

Diffusion is 1e-10 cm^2/s
k_D is 1 nM
Number of cells is 1

Completed in 0.012743 seconds
Number of dead cells is 0 

Diffusion is 1e-10 cm^2/s
k_D is 1 nM
Number of cells is 2

Completed in 0.019264 seconds
Number of dead cells is 0 

Diffusion is 1e-10 cm^2/s
k_D is 1 nM
Number of cells is 5

Completed in 0.0459373 seconds
Number of dead cells is 0 

Diffusion is 1e-10 cm^2/s
k_D is 1 nM
Number of cells is 10

Completed in 0.0833139 seconds
Number of dead cells is 0 

Diffusion is 1e-10 cm^2/s
k_D is 1 nM
Number of cells is 50

Completed in 0.490122 seconds
Number of dead cells is 0 

Diffusion is 1e-10 cm^2/s
k_D is 0.01 nM
Number of cells is 1

Completed in 0.01105 seconds
Number of dead cells is 0 

Diffusion is 1e-10 cm^2/s
k_D is 0.01 nM
Number of cells is 2

Completed in 0.0216279 seconds
Number of dead cells is 0 

Diffusion is 1e-10 cm^2/s
k_D is 0.01 nM
Number of cells is 5

Completed in 0.0435212 seconds
Number of dead cells is 0 

Diffusion is 1e-10 cm^2/s
k_D is 0.01 nM
Number of cells is 10

Completed in 0.077354 seconds
Number of dead cells is 0 

Diffusion is 1e-10 cm^2/s
k_D is 0.01 nM
Number of cells is 50

Completed in 0.561361 seconds
Number of dead cells is 0 

Diffusion is 1e-10 cm^2/s
k_D is 0.0001 nM
Number of cells is 1

Completed in 0.0118659 seconds
Number of dead cells is 0 

Diffusion is 1e-10 cm^2/s
k_D is 0.0001 nM
Number of cells is 2

Completed in 0.020119 seconds
Number of dead cells is 0 

Diffusion is 1e-10 cm^2/s
k_D is 0.0001 nM
Number of cells is 5

Completed in 0.0377181 seconds
Number of dead cells is 0 
